2023.01.02 19:08:13 INFO  tracing is disabled for protocol LSP, to enable tracing of incoming and outgoing JSON messages create an empty file at /home/shreyas/Documents/Practicals/SLIPS/slip-12/1/.metals/lsp.trace.json or /home/shreyas/.cache/metals/lsp.trace.json[0m
2023.01.02 19:08:15 INFO  logging to file /home/shreyas/Documents/Practicals/SLIPS/slip-12/1/.metals/metals.log[0m
2023.01.02 19:08:15 INFO  Started: Metals version 0.11.9 in workspace '/home/shreyas/Documents/Practicals/SLIPS/slip-12/1' for client VSCodium 1.74.2.[0m
2023.01.02 19:08:20 INFO  time: initialize in 5.11s[0m
2023.01.02 19:08:25 WARN  Build server is not auto-connectable.[0m
2023.01.02 19:08:25 WARN  no build tool detected in workspace '/home/shreyas/Documents/Practicals/SLIPS/slip-12/1'. The most common cause for this problem is that the editor was opened in the wrong working directory, for example if you use sbt then the workspace directory should contain build.sbt. [0m
2023.01.02 19:08:25 WARN  no build target for: /home/shreyas/Documents/Practicals/SLIPS/slip-12/1/BasicCar.java[0m
2023.01.02 19:08:25 WARN  no build target for: /home/shreyas/Documents/Practicals/SLIPS/slip-12/1/SportsCar.java[0m
2023.01.02 19:08:25 WARN  no build target for: /home/shreyas/Documents/Practicals/SLIPS/slip-12/1/CarDecorator.java[0m
2023.01.02 19:08:25 WARN  no build target for: /home/shreyas/Documents/Practicals/SLIPS/slip-12/1/CarTest.java[0m
2023.01.02 19:08:25 WARN  no build target for: /home/shreyas/Documents/Practicals/SLIPS/slip-12/1/LuxuryCar.java[0m
2023.01.02 19:08:25 WARN  no build target for: /home/shreyas/Documents/Practicals/SLIPS/slip-12/1/Car.java[0m
Jan 02, 2023 7:08:26 PM org.eclipse.lsp4j.jsonrpc.RemoteEndpoint handleCancellation
WARNING: Unmatched cancel notification for request id 5
Jan 02, 2023 7:08:26 PM org.eclipse.lsp4j.jsonrpc.RemoteEndpoint handleCancellation
WARNING: Unmatched cancel notification for request id 1
2023.01.02 19:08:28 INFO  time: code lens generation in 2.09s[0m
2023.01.02 19:08:29 INFO  time: code lens generation in 3.72s[0m
Jan 02, 2023 7:08:31 PM org.eclipse.lsp4j.jsonrpc.RemoteEndpoint handleCancellation
WARNING: Unmatched cancel notification for request id 15
2023.01.02 19:08:35 INFO  time: code lens generation in 4.79s[0m
2023.01.02 19:08:35 WARN  no build target for: /home/shreyas/Documents/Practicals/SLIPS/slip-12/1/LuxuryCar.java[0m
2023.01.02 19:08:37 INFO  time: code lens generation in 1.31s[0m
2023.01.02 19:08:39 WARN  no build target for: /home/shreyas/Documents/Practicals/SLIPS/slip-12/1/SportsCar.java[0m
2023.01.02 19:08:40 WARN  Running javac-semanticdb failed for file:///home/shreyas/Documents/Practicals/SLIPS/slip-12/1/SportsCar.java. Output:
/home/shreyas/Documents/Practicals/SLIPS/slip-12/1/SportsCar.java:10: error: not a statement
		System.out.print;n(" Adding features of Sports Car.");
		          ^
1 error[0m
2023.01.02 19:08:43 WARN  no build target for: /home/shreyas/Documents/Practicals/SLIPS/slip-12/1/SportsCar.java[0m
2023.01.02 19:08:45 INFO  time: code lens generation in 1.16s[0m
2023.01.02 19:08:55 INFO  shutting down Metals[0m
